1 10 20
100 200 125
201 210 89
900 1000 174
1 1 1
2 2 2
3 3 8
3 1 8
2 1 2
999999 999999 259
999998 999999 259
999999 999998 259
200 300 128
300 400 144
400 500 142
500 600 137
600 700 145
700 800 171
900 1000 174
1000 1100 169
1100 1200 182
1200 1300 177
1300 1400 177
1400 1500 172
1500 1600 167
1600 1700 180
1700 1800 180
1800 1900 175
1900 2000 175
2000 2100 157
2100 2200 170
2200 2300 183
2300 2400 183
2400 2500 209
2500 2600 178
2600 2700 191
2700 2800 173
2800 2900 173
2900 3000 217
3000 3100 186
3100 3200 199
3200 3300 168
3300 3400 181
3400 3500 181
3500 3600 194
3600 3700 207
3700 3800 238
3800 3900 176
3900 4000 189
4000 4100 189
4100 4200 189
4200 4300 202
4300 4400 215
4400 4500 184
4500 4600 184
4600 4700 184
4700 4800 197
4800 4900 179
4900 5000 210
5000 5100 179
5100 5200 179
5200 5300 192
5300 5400 192
5400 5500 192
5500 5600 236
5600 5700 205
5700 5800 205
5800 5900 218
5900 6000 187
6000 6100 187
6100 6200 262
995000 995099 277
995100 995199 228
995200 995299 290
995300 995399 259
995400 995499 259
995500 995599 290
995600 995699 290
995700 995799 290
995800 995899 290
995900 995999 365
996000 996099 365
996100 996199 352
996200 996299 290
996300 996399 290
996400 996499 259
996500 996599 352
996600 996699 290
996700 996799 321
996800 996899 321
996900 996999 321
997000 997099 290
997100 997199 259
997200 997299 352
997300 997399 290
997400 997499 321
997500 997599 321
997600 997699 321
997700 997799 228
997800 997899 440
997900 997999 228
998000 998099 228
998100 998199 259
998200 998299 277
998300 998399 246
998400 998499 277
998500 998599 246
998600 998699 246
998700 998799 228
998800 998899 259
998900 998999 396
999000 999099 277
999100 999199 321
999200 999299 396
999300 999399 277
999400 999499 290
999500 999599 290
999600 999699 290
999700 999799 259
999800 999899 259
999900 999999 259
1 999999 525
999999 1 525
