..............
----------------------------------------------------------------------
<<<<<<< HEAD
Ran 7 tests in 0.063s
=======
Ran 14 tests in 0.145s
>>>>>>> dev

OK
Name             Stmts   Miss Branch BrPart  Cover   Missing
------------------------------------------------------------
<<<<<<< HEAD
Collatz.py          25      0     10      0   100%
TestCollatz.py      32      0      0      0   100%
------------------------------------------------------------
TOTAL               57      0     10      0   100%
=======
Collatz.py          34      0     16      0   100%
TestCollatz.py      63      0      0      0   100%
------------------------------------------------------------
TOTAL               97      0     16      0   100%
>>>>>>> dev
