...................
----------------------------------------------------------------------
Ran 19 tests in 21.777s

OK
Name             Stmts   Miss Branch BrPart  Cover   Missing
------------------------------------------------------------
Collatz.py          60      0     28      0   100%
TestCollatz.py      79      0      0      0   100%
------------------------------------------------------------
TOTAL              139      0     28      0   100%
