1 10 20
100 200 125
201 210 89
900 1000 174
10 1 20
100 200 125
210 201 89
1000 900 174
1 1 1
1 999999 525
999999 1 525
80173 70368 351
45938 83764 351
56416 5327 340
14298 50606 324
40975 40485 288
25462 5346 282
96378 23952 351
61851 85981 351
53300 19285 340
85869 95564 333
72646 60592 335
26274 41597 324
18974 45816 324
5092 17190 276
15801 99720 351
69889 55562 335
6431 79062 351
3904 74024 340
67454 88170 351
91466 30166 351
92920 19139 351
32043 23327 308
3390 81906 351
50375 85050 351
71870 40368 340
4030 57869 340
48154 75019 340
22640 31153 308
45049 84173 351
20838 11493 279
78503 55014 351
27427 16057 308
35050 27227 311
94537 21656 351
5925 81370 351
56585 69873 335
60873 27108 340
32032 88078 351
76005 48306 340
65402 25856 340
98440 85592 333
42491 31710 324
19814 43860 324
87908 17861 351
83165 5552 351
30244 88863 351
17973 19856 274
22701 89775 351
21510 14872 279
13360 9911 276
44638 24803 324
64393 14118 340
37589 90872 351
76105 73135 325
41164 3512 324
83348 82100 320
5831 18740 279
31251 84097 351
3986 60430 340
26745 63035 340
62999 6533 340
93116 54828 351
95696 46037 351
22441 24223 282
27115 79387 351
93483 20516 351
64638 89 340
48125 42544 314
84640 6852 351
94402 67874 351
82228 20527 351
27244 69435 340
67019 95797 351
97754 36411 351
52664 72245 335
91399 41167 351
27224 19058 308
34923 21376 311
53935 83516 351
88099 41785 351
663 75563 340
49346 69056 340
52942 47778 340
5083 63327 340
25144 9598 282
62369 4784 340
58311 57020 304
82739 77413 338
23155 4714 279
36778 62446 340
76231 51644 340
24652 68436 340
24955 26180 264
6493 49194 324
23453 93474 351
70741 49807 340
92849 63635 351
84708 31993 351
79933 91747 333
843968 220535 525
96123 993764 525
705348 364730 509
195043 582322 470
569512 898938 525
71122 855288 525
72131 604364 470
253746 293484 407
933543 506283 525
